%YAML 1.1
%TAG !u! tag:unity3d.com,2011:
--- !u!1 &1481315249671455760
GameObject:
  m_ObjectHideFlags: 0
  m_CorrespondingSourceObject: {fileID: 0}
  m_PrefabInstance: {fileID: 0}
  m_PrefabAsset: {fileID: 0}
  serializedVersion: 6
  m_Component:
  - component: {fileID: 1481315249671455759}
  - component: {fileID: 1481315249671455758}
  m_Layer: 0
  m_Name: AnimatorParent
  m_TagString: Piece
  m_Icon: {fileID: 0}
  m_NavMeshLayer: 0
  m_StaticEditorFlags: 0
  m_IsActive: 1
--- !u!4 &1481315249671455759
Transform:
  m_ObjectHideFlags: 0
  m_CorrespondingSourceObject: {fileID: 0}
  m_PrefabInstance: {fileID: 0}
  m_PrefabAsset: {fileID: 0}
  m_GameObject: {fileID: 1481315249671455760}
  m_LocalRotation: {x: 0, y: 0, z: 0, w: 1}
  m_LocalPosition: {x: 0, y: 0, z: 0}
  m_LocalScale: {x: 1, y: 1, z: 1}
  m_Children:
  - {fileID: 2335809063608312905}
  m_Father: {fileID: 1481315250637429025}
  m_RootOrder: 0
  m_LocalEulerAnglesHint: {x: 0, y: 0, z: 0}
--- !u!95 &1481315249671455758
Animator:
  serializedVersion: 3
  m_ObjectHideFlags: 0
  m_CorrespondingSourceObject: {fileID: 0}
  m_PrefabInstance: {fileID: 0}
  m_PrefabAsset: {fileID: 0}
  m_GameObject: {fileID: 1481315249671455760}
  m_Enabled: 1
  m_Avatar: {fileID: 0}
  m_Controller: {fileID: 9100000, guid: 5b9771332fa45f745aa127dafadf8b57, type: 2}
  m_CullingMode: 0
  m_UpdateMode: 0
  m_ApplyRootMotion: 1
  m_LinearVelocityBlending: 0
  m_WarningMessage: 
  m_HasTransformHierarchy: 1
  m_AllowConstantClipSamplingOptimization: 1
  m_KeepAnimatorControllerStateOnDisable: 0
--- !u!1 &1481315250637429029
GameObject:
  m_ObjectHideFlags: 0
  m_CorrespondingSourceObject: {fileID: 0}
  m_PrefabInstance: {fileID: 0}
  m_PrefabAsset: {fileID: 0}
  serializedVersion: 6
  m_Component:
  - component: {fileID: 1481315250637429025}
  - component: {fileID: 1481315250637429026}
  - component: {fileID: 1481315250637429027}
  - component: {fileID: 4227048198583070878}
  m_Layer: 0
  m_Name: Pear
  m_TagString: Piece
  m_Icon: {fileID: 0}
  m_NavMeshLayer: 0
  m_StaticEditorFlags: 0
  m_IsActive: 1
--- !u!4 &1481315250637429025
Transform:
  m_ObjectHideFlags: 0
  m_CorrespondingSourceObject: {fileID: 0}
  m_PrefabInstance: {fileID: 0}
  m_PrefabAsset: {fileID: 0}
  m_GameObject: {fileID: 1481315250637429029}
  m_LocalRotation: {x: 0, y: 0, z: 0, w: 1}
  m_LocalPosition: {x: 0, y: 0.3, z: 0}
  m_LocalScale: {x: 1, y: 1, z: 1}
  m_Children:
  - {fileID: 1481315249671455759}
  - {fileID: 4955604794108493205}
  m_Father: {fileID: 0}
  m_RootOrder: 0
  m_LocalEulerAnglesHint: {x: 0, y: 0, z: 0}
--- !u!114 &1481315250637429026
MonoBehaviour:
  m_ObjectHideFlags: 0
  m_CorrespondingSourceObject: {fileID: 0}
  m_PrefabInstance: {fileID: 0}
  m_PrefabAsset: {fileID: 0}
  m_GameObject: {fileID: 1481315250637429029}
  m_Enabled: 1
  m_EditorHideFlags: 0
  m_Script: {fileID: 11500000, guid: 885b2fec55d98e743baa1ed086ef498b, type: 3}
  m_Name: 
  m_EditorClassIdentifier: 
  type: 5
  catched: 0
  anim: {fileID: 1481315249671455758}
  allowedToShoot: 0
  maxDistance: 15
--- !u!54 &1481315250637429027
Rigidbody:
  m_ObjectHideFlags: 0
  m_CorrespondingSourceObject: {fileID: 0}
  m_PrefabInstance: {fileID: 0}
  m_PrefabAsset: {fileID: 0}
  m_GameObject: {fileID: 1481315250637429029}
  serializedVersion: 2
  m_Mass: 1
  m_Drag: 2
  m_AngularDrag: 1.3
  m_UseGravity: 0
  m_IsKinematic: 0
  m_Interpolate: 0
  m_Constraints: 84
  m_CollisionDetection: 0
--- !u!114 &4227048198583070878
MonoBehaviour:
  m_ObjectHideFlags: 0
  m_CorrespondingSourceObject: {fileID: 0}
  m_PrefabInstance: {fileID: 0}
  m_PrefabAsset: {fileID: 0}
  m_GameObject: {fileID: 1481315250637429029}
  m_Enabled: 1
  m_EditorHideFlags: 0
  m_Script: {fileID: 11500000, guid: d2cdd89a82f696548a6c623e0947d201, type: 3}
  m_Name: 
  m_EditorClassIdentifier: 
--- !u!64 &6010835339585596825
MeshCollider:
  m_ObjectHideFlags: 0
  m_CorrespondingSourceObject: {fileID: 0}
  m_PrefabInstance: {fileID: 0}
  m_PrefabAsset: {fileID: 0}
  m_GameObject: {fileID: 3107947028679933683}
  m_Material: {fileID: 0}
  m_IsTrigger: 0
  m_Enabled: 1
  serializedVersion: 4
  m_Convex: 1
  m_CookingOptions: 30
  m_Mesh: {fileID: 798035055718525027, guid: ef0f5f51faacaef4392cfa74979e5574, type: 3}
--- !u!1001 &2873521458649203618
PrefabInstance:
  m_ObjectHideFlags: 0
  serializedVersion: 2
  m_Modification:
    m_TransformParent: {fileID: 1481315249671455759}
    m_Modifications:
    - target: {fileID: -8679921383154817045, guid: ef0f5f51faacaef4392cfa74979e5574, type: 3}
      propertyPath: m_RootOrder
      value: 0
      objectReference: {fileID: 0}
    - target: {fileID: -8679921383154817045, guid: ef0f5f51faacaef4392cfa74979e5574, type: 3}
      propertyPath: m_LocalPosition.x
      value: 0
      objectReference: {fileID: 0}
    - target: {fileID: -8679921383154817045, guid: ef0f5f51faacaef4392cfa74979e5574, type: 3}
      propertyPath: m_LocalPosition.y
      value: 0
      objectReference: {fileID: 0}
    - target: {fileID: -8679921383154817045, guid: ef0f5f51faacaef4392cfa74979e5574, type: 3}
      propertyPath: m_LocalPosition.z
      value: 0
      objectReference: {fileID: 0}
    - target: {fileID: -8679921383154817045, guid: ef0f5f51faacaef4392cfa74979e5574, type: 3}
      propertyPath: m_LocalRotation.w
      value: 0
      objectReference: {fileID: 0}
    - target: {fileID: -8679921383154817045, guid: ef0f5f51faacaef4392cfa74979e5574, type: 3}
      propertyPath: m_LocalRotation.x
      value: 0
      objectReference: {fileID: 0}
    - target: {fileID: -8679921383154817045, guid: ef0f5f51faacaef4392cfa74979e5574, type: 3}
      propertyPath: m_LocalRotation.y
      value: 1
      objectReference: {fileID: 0}
    - target: {fileID: -8679921383154817045, guid: ef0f5f51faacaef4392cfa74979e5574, type: 3}
      propertyPath: m_LocalRotation.z
      value: 0
      objectReference: {fileID: 0}
    - target: {fileID: -8679921383154817045, guid: ef0f5f51faacaef4392cfa74979e5574, type: 3}
      propertyPath: m_LocalEulerAnglesHint.x
      value: 0
      objectReference: {fileID: 0}
    - target: {fileID: -8679921383154817045, guid: ef0f5f51faacaef4392cfa74979e5574, type: 3}
      propertyPath: m_LocalEulerAnglesHint.y
      value: 180
      objectReference: {fileID: 0}
    - target: {fileID: -8679921383154817045, guid: ef0f5f51faacaef4392cfa74979e5574, type: 3}
      propertyPath: m_LocalEulerAnglesHint.z
      value: 0
      objectReference: {fileID: 0}
    - target: {fileID: 919132149155446097, guid: ef0f5f51faacaef4392cfa74979e5574, type: 3}
      propertyPath: m_Name
      value: Pear
      objectReference: {fileID: 0}
    - target: {fileID: 919132149155446097, guid: ef0f5f51faacaef4392cfa74979e5574, type: 3}
      propertyPath: m_TagString
      value: Piece
      objectReference: {fileID: 0}
    m_RemovedComponents: []
  m_SourcePrefab: {fileID: 100100000, guid: ef0f5f51faacaef4392cfa74979e5574, type: 3}
--- !u!1 &3107947028679933683 stripped
GameObject:
  m_CorrespondingSourceObject: {fileID: 919132149155446097, guid: ef0f5f51faacaef4392cfa74979e5574, type: 3}
  m_PrefabInstance: {fileID: 2873521458649203618}
  m_PrefabAsset: {fileID: 0}
--- !u!4 &2335809063608312905 stripped
Transform:
  m_CorrespondingSourceObject: {fileID: -8679921383154817045, guid: ef0f5f51faacaef4392cfa74979e5574, type: 3}
  m_PrefabInstance: {fileID: 2873521458649203618}
  m_PrefabAsset: {fileID: 0}
--- !u!1001 &6785623507720980887
PrefabInstance:
  m_ObjectHideFlags: 0
  serializedVersion: 2
  m_Modification:
    m_TransformParent: {fileID: 1481315250637429025}
    m_Modifications:
    - target: {fileID: 1940691817711334402, guid: d36b3036ba163c241a2f5da1965a5aa3, type: 3}
      propertyPath: m_RootOrder
      value: 1
      objectReference: {fileID: 0}
    - target: {fileID: 1940691817711334402, guid: d36b3036ba163c241a2f5da1965a5aa3, type: 3}
      propertyPath: m_LocalPosition.x
      value: 0
      objectReference: {fileID: 0}
    - target: {fileID: 1940691817711334402, guid: d36b3036ba163c241a2f5da1965a5aa3, type: 3}
      propertyPath: m_LocalPosition.y
      value: 0
      objectReference: {fileID: 0}
    - target: {fileID: 1940691817711334402, guid: d36b3036ba163c241a2f5da1965a5aa3, type: 3}
      propertyPath: m_LocalPosition.z
      value: 0
      objectReference: {fileID: 0}
    - target: {fileID: 1940691817711334402, guid: d36b3036ba163c241a2f5da1965a5aa3, type: 3}
      propertyPath: m_LocalRotation.w
      value: 1
      objectReference: {fileID: 0}
    - target: {fileID: 1940691817711334402, guid: d36b3036ba163c241a2f5da1965a5aa3, type: 3}
      propertyPath: m_LocalRotation.x
      value: 0
      objectReference: {fileID: 0}
    - target: {fileID: 1940691817711334402, guid: d36b3036ba163c241a2f5da1965a5aa3, type: 3}
      propertyPath: m_LocalRotation.y
      value: 0
      objectReference: {fileID: 0}
    - target: {fileID: 1940691817711334402, guid: d36b3036ba163c241a2f5da1965a5aa3, type: 3}
      propertyPath: m_LocalRotation.z
      value: 0
      objectReference: {fileID: 0}
    - target: {fileID: 1940691817711334402, guid: d36b3036ba163c241a2f5da1965a5aa3, type: 3}
      propertyPath: m_LocalEulerAnglesHint.x
      value: 0
      objectReference: {fileID: 0}
    - target: {fileID: 1940691817711334402, guid: d36b3036ba163c241a2f5da1965a5aa3, type: 3}
      propertyPath: m_LocalEulerAnglesHint.y
      value: 0
      objectReference: {fileID: 0}
    - target: {fileID: 1940691817711334402, guid: d36b3036ba163c241a2f5da1965a5aa3, type: 3}
      propertyPath: m_LocalEulerAnglesHint.z
      value: 0
      objectReference: {fileID: 0}
    - target: {fileID: 1940691817711334403, guid: d36b3036ba163c241a2f5da1965a5aa3, type: 3}
      propertyPath: m_Materials.Array.data[0]
      value: 
      objectReference: {fileID: 2100000, guid: 2a6cf20e7dbb86e4da52a3a2d6ee2c40, type: 2}
    - target: {fileID: 1940691817711334405, guid: d36b3036ba163c241a2f5da1965a5aa3, type: 3}
      propertyPath: m_Name
      value: Trail
      objectReference: {fileID: 0}
    m_RemovedComponents: []
  m_SourcePrefab: {fileID: 100100000, guid: d36b3036ba163c241a2f5da1965a5aa3, type: 3}
--- !u!4 &4955604794108493205 stripped
Transform:
  m_CorrespondingSourceObject: {fileID: 1940691817711334402, guid: d36b3036ba163c241a2f5da1965a5aa3, type: 3}
  m_PrefabInstance: {fileID: 6785623507720980887}
  m_PrefabAsset: {fileID: 0}
