%YAML 1.1
%TAG !u! tag:unity3d.com,2011:
--- !u!1 &6833662038408824016
GameObject:
  m_ObjectHideFlags: 0
  m_CorrespondingSourceObject: {fileID: 0}
  m_PrefabInstance: {fileID: 0}
  m_PrefabAsset: {fileID: 0}
  serializedVersion: 6
  m_Component:
  - component: {fileID: 2884222156642154289}
  - component: {fileID: 5013813147841491096}
  - component: {fileID: 4708517041030998696}
  m_Layer: 0
  m_Name: Orange_Box-30
  m_TagString: Untagged
  m_Icon: {fileID: 0}
  m_NavMeshLayer: 0
  m_StaticEditorFlags: 0
  m_IsActive: 1
--- !u!4 &2884222156642154289
Transform:
  m_ObjectHideFlags: 0
  m_CorrespondingSourceObject: {fileID: 0}
  m_PrefabInstance: {fileID: 0}
  m_PrefabAsset: {fileID: 0}
  m_GameObject: {fileID: 6833662038408824016}
  m_LocalRotation: {x: 0, y: 0, z: 0, w: 1}
  m_LocalPosition: {x: 0, y: 0, z: 0}
  m_LocalScale: {x: 1, y: 1, z: 1}
  m_Children:
  - {fileID: 8970469821431810015}
  m_Father: {fileID: 0}
  m_RootOrder: 0
  m_LocalEulerAnglesHint: {x: 0, y: 0, z: 0}
--- !u!114 &5013813147841491096
MonoBehaviour:
  m_ObjectHideFlags: 0
  m_CorrespondingSourceObject: {fileID: 0}
  m_PrefabInstance: {fileID: 0}
  m_PrefabAsset: {fileID: 0}
  m_GameObject: {fileID: 6833662038408824016}
  m_Enabled: 1
  m_EditorHideFlags: 0
  m_Script: {fileID: 11500000, guid: d3cd0f49afb4fd44ea4a1d740d4d07c8, type: 3}
  m_Name: 
  m_EditorClassIdentifier: 
  type: 14
  Attribute: {fileID: 0}
  method2: 1
  directionSpeed: 1
  speedReduceTime: 0.99
  reached: 0
  reachPosition: {x: 0, y: 0, z: 0}
  direction: {x: 0, y: 0, z: 0}
  speed: 0
--- !u!135 &4708517041030998696
SphereCollider:
  m_ObjectHideFlags: 0
  m_CorrespondingSourceObject: {fileID: 0}
  m_PrefabInstance: {fileID: 0}
  m_PrefabAsset: {fileID: 0}
  m_GameObject: {fileID: 6833662038408824016}
  m_Material: {fileID: 0}
  m_IsTrigger: 1
  m_Enabled: 1
  serializedVersion: 2
  m_Radius: 1.8
  m_Center: {x: 0, y: 1, z: 0}
--- !u!64 &3553696014332278704
MeshCollider:
  m_ObjectHideFlags: 0
  m_CorrespondingSourceObject: {fileID: 0}
  m_PrefabInstance: {fileID: 0}
  m_PrefabAsset: {fileID: 0}
  m_GameObject: {fileID: 8590143958711950693}
  m_Material: {fileID: 13400000, guid: 42cba324d131f9944aa8affc9aac6157, type: 2}
  m_IsTrigger: 0
  m_Enabled: 1
  serializedVersion: 4
  m_Convex: 1
  m_CookingOptions: 30
  m_Mesh: {fileID: -7297983585763895591, guid: b761bbf826b7bfd4a965fbe01f48a0d0, type: 3}
--- !u!1001 &8932674060667805748
PrefabInstance:
  m_ObjectHideFlags: 0
  serializedVersion: 2
  m_Modification:
    m_TransformParent: {fileID: 2884222156642154289}
    m_Modifications:
    - target: {fileID: -8679921383154817045, guid: b761bbf826b7bfd4a965fbe01f48a0d0, type: 3}
      propertyPath: m_RootOrder
      value: 0
      objectReference: {fileID: 0}
    - target: {fileID: -8679921383154817045, guid: b761bbf826b7bfd4a965fbe01f48a0d0, type: 3}
      propertyPath: m_LocalPosition.x
      value: -0
      objectReference: {fileID: 0}
    - target: {fileID: -8679921383154817045, guid: b761bbf826b7bfd4a965fbe01f48a0d0, type: 3}
      propertyPath: m_LocalPosition.y
      value: 0
      objectReference: {fileID: 0}
    - target: {fileID: -8679921383154817045, guid: b761bbf826b7bfd4a965fbe01f48a0d0, type: 3}
      propertyPath: m_LocalPosition.z
      value: 0
      objectReference: {fileID: 0}
    - target: {fileID: -8679921383154817045, guid: b761bbf826b7bfd4a965fbe01f48a0d0, type: 3}
      propertyPath: m_LocalRotation.w
      value: 1
      objectReference: {fileID: 0}
    - target: {fileID: -8679921383154817045, guid: b761bbf826b7bfd4a965fbe01f48a0d0, type: 3}
      propertyPath: m_LocalRotation.x
      value: 0
      objectReference: {fileID: 0}
    - target: {fileID: -8679921383154817045, guid: b761bbf826b7bfd4a965fbe01f48a0d0, type: 3}
      propertyPath: m_LocalRotation.y
      value: -0
      objectReference: {fileID: 0}
    - target: {fileID: -8679921383154817045, guid: b761bbf826b7bfd4a965fbe01f48a0d0, type: 3}
      propertyPath: m_LocalRotation.z
      value: -0
      objectReference: {fileID: 0}
    - target: {fileID: -8679921383154817045, guid: b761bbf826b7bfd4a965fbe01f48a0d0, type: 3}
      propertyPath: m_LocalEulerAnglesHint.x
      value: 0
      objectReference: {fileID: 0}
    - target: {fileID: -8679921383154817045, guid: b761bbf826b7bfd4a965fbe01f48a0d0, type: 3}
      propertyPath: m_LocalEulerAnglesHint.y
      value: 0
      objectReference: {fileID: 0}
    - target: {fileID: -8679921383154817045, guid: b761bbf826b7bfd4a965fbe01f48a0d0, type: 3}
      propertyPath: m_LocalEulerAnglesHint.z
      value: 0
      objectReference: {fileID: 0}
    - target: {fileID: 919132149155446097, guid: b761bbf826b7bfd4a965fbe01f48a0d0, type: 3}
      propertyPath: m_Name
      value: Orange_Box-30
      objectReference: {fileID: 0}
    m_RemovedComponents: []
  m_SourcePrefab: {fileID: 100100000, guid: b761bbf826b7bfd4a965fbe01f48a0d0, type: 3}
--- !u!1 &8590143958711950693 stripped
GameObject:
  m_CorrespondingSourceObject: {fileID: 919132149155446097, guid: b761bbf826b7bfd4a965fbe01f48a0d0, type: 3}
  m_PrefabInstance: {fileID: 8932674060667805748}
  m_PrefabAsset: {fileID: 0}
--- !u!4 &8970469821431810015 stripped
Transform:
  m_CorrespondingSourceObject: {fileID: -8679921383154817045, guid: b761bbf826b7bfd4a965fbe01f48a0d0, type: 3}
  m_PrefabInstance: {fileID: 8932674060667805748}
  m_PrefabAsset: {fileID: 0}
