%YAML 1.1
%TAG !u! tag:unity3d.com,2011:
--- !u!114 &11400000
MonoBehaviour:
  m_ObjectHideFlags: 0
  m_CorrespondingSourceObject: {fileID: 0}
  m_PrefabInstance: {fileID: 0}
  m_PrefabAsset: {fileID: 0}
  m_GameObject: {fileID: 0}
  m_Enabled: 1
  m_EditorHideFlags: 0
  m_Script: {fileID: 11500000, guid: de8afc3afb42c2d40b58326cc480fcb5, type: 3}
  m_Name: Pear
  m_EditorClassIdentifier: 
  type: 5
  Prefab: {fileID: 1481315250637429029, guid: afa14968b89df0c45adcc5bd51f8cd9b, type: 3}
  HolePrefab: {fileID: 6159355677632021987, guid: c5a7687d2328a2345b0173faf5339859, type: 3}
  icon: {fileID: 2800000, guid: 53cbf3ce09e7b404388ed1c1e08fed1d, type: 3}
