%YAML 1.1
%TAG !u! tag:unity3d.com,2011:
--- !u!114 &11400000
MonoBehaviour:
  m_ObjectHideFlags: 0
  m_CorrespondingSourceObject: {fileID: 0}
  m_PrefabInstance: {fileID: 0}
  m_PrefabAsset: {fileID: 0}
  m_GameObject: {fileID: 0}
  m_Enabled: 1
  m_EditorHideFlags: 0
  m_Script: {fileID: 11500000, guid: 59d5fc63445820e4f9d4664ab4622115, type: 3}
  m_Name: 12
  m_EditorClassIdentifier: 
  ApplyPrefab: 1
  puzzlePieces:
  - {fileID: 0}
  - {fileID: 11400000, guid: 1fb95d6465d10804496b561f6c4deda2, type: 2}
  - {fileID: 11400000, guid: e49362939304ac44b8ecdedfdc1645e0, type: 2}
  - {fileID: 11400000, guid: d55bd31595e6bba4891489769e293323, type: 2}
  - {fileID: 11400000, guid: 2ded4e052dab02c46b39a41175d15e0f, type: 2}
  - {fileID: 11400000, guid: 770ace48d9895c544968ec0a662ec450, type: 2}
  - {fileID: 11400000, guid: 93c08150e534e464493697de63a5eddd, type: 2}
  Ground: {fileID: 2406233479458321844, guid: eb4046c0bb8de8446a717b4d8ccd6471, type: 3}
  ObsAndColl: {fileID: 0}
  numberOfHoles: 4
  Senario:
  - fruitNumber: 0
    prefabSelectedNum: 0
    Filled: 1
    icon: {fileID: 0}
  - fruitNumber: 2
    prefabSelectedNum: 2
    Filled: 1
    icon: {fileID: 2800000, guid: e0239561a16886e4f83efb05e571ca94, type: 3}
  - fruitNumber: 1
    prefabSelectedNum: 0
    Filled: 1
    icon: {fileID: 2800000, guid: 1827774246484e0458835283361f83f6, type: 3}
  - fruitNumber: 2
    prefabSelectedNum: 1
    Filled: 1
    icon: {fileID: 2800000, guid: aef4f8df30649c34cb2f8e797b144357, type: 3}
  - fruitNumber: 0
    prefabSelectedNum: 0
    Filled: 1
    icon: {fileID: 0}
  - fruitNumber: 3
    prefabSelectedNum: 2
    Filled: 1
    icon: {fileID: 2800000, guid: 2c0d2d3d68ce67d44a743c53a95d028b, type: 3}
  - fruitNumber: 0
    prefabSelectedNum: 0
    Filled: 1
    icon: {fileID: 0}
  - fruitNumber: 0
    prefabSelectedNum: 0
    Filled: 1
    icon: {fileID: 0}
  - fruitNumber: 0
    prefabSelectedNum: 0
    Filled: 1
    icon: {fileID: 0}
  - fruitNumber: 3
    prefabSelectedNum: 1
    Filled: 0
    icon: {fileID: 2800000, guid: bfa954f97e0b2a441b9bb0309a9e7b41, type: 3}
  - fruitNumber: 2
    prefabSelectedNum: 0
    Filled: 0
    icon: {fileID: 2800000, guid: 0190d6b2088e3174ba174afcfbe27de9, type: 3}
  - fruitNumber: 0
    prefabSelectedNum: 0
    Filled: 1
    icon: {fileID: 0}
  - fruitNumber: 0
    prefabSelectedNum: 0
    Filled: 1
    icon: {fileID: 0}
  - fruitNumber: 0
    prefabSelectedNum: 0
    Filled: 1
    icon: {fileID: 0}
  - fruitNumber: 2
    prefabSelectedNum: 0
    Filled: 1
    icon: {fileID: 2800000, guid: 0190d6b2088e3174ba174afcfbe27de9, type: 3}
  - fruitNumber: 0
    prefabSelectedNum: 0
    Filled: 1
    icon: {fileID: 0}
  - fruitNumber: 1
    prefabSelectedNum: 1
    Filled: 0
    icon: {fileID: 2800000, guid: 59aad163ea35d384b879370fccbf56ce, type: 3}
  - fruitNumber: 0
    prefabSelectedNum: 0
    Filled: 1
    icon: {fileID: 0}
  - fruitNumber: 1
    prefabSelectedNum: 2
    Filled: 0
    icon: {fileID: 2800000, guid: 802fdb0524624784ca41f63e3ff0479e, type: 3}
  - fruitNumber: 0
    prefabSelectedNum: 0
    Filled: 1
    icon: {fileID: 0}
  - fruitNumber: 0
    prefabSelectedNum: 0
    Filled: 1
    icon: {fileID: 0}
  - fruitNumber: 0
    prefabSelectedNum: 0
    Filled: 1
    icon: {fileID: 0}
  - fruitNumber: 3
    prefabSelectedNum: 0
    Filled: 1
    icon: {fileID: 2800000, guid: 4483622f0be9f3241829adab6766010c, type: 3}
  - fruitNumber: 0
    prefabSelectedNum: 0
    Filled: 1
    icon: {fileID: 0}
  - fruitNumber: 0
    prefabSelectedNum: 0
    Filled: 1
    icon: {fileID: 0}
  - fruitNumber: 0
    prefabSelectedNum: 0
    Filled: 1
    icon: {fileID: 0}
  - fruitNumber: 0
    prefabSelectedNum: 0
    Filled: 1
    icon: {fileID: 0}
  - fruitNumber: 0
    prefabSelectedNum: 0
    Filled: 1
    icon: {fileID: 0}
  - fruitNumber: 0
    prefabSelectedNum: 0
    Filled: 1
    icon: {fileID: 0}
  - fruitNumber: 0
    prefabSelectedNum: 0
    Filled: 1
    icon: {fileID: 0}
  - fruitNumber: 0
    prefabSelectedNum: 0
    Filled: 1
    icon: {fileID: 0}
  - fruitNumber: 0
    prefabSelectedNum: 0
    Filled: 1
    icon: {fileID: 0}
  - fruitNumber: 0
    prefabSelectedNum: 0
    Filled: 1
    icon: {fileID: 0}
  - fruitNumber: 0
    prefabSelectedNum: 0
    Filled: 1
    icon: {fileID: 0}
  - fruitNumber: 0
    prefabSelectedNum: 0
    Filled: 1
    icon: {fileID: 0}
  - fruitNumber: 0
    prefabSelectedNum: 0
    Filled: 1
    icon: {fileID: 0}
  - fruitNumber: 0
    prefabSelectedNum: 0
    Filled: 1
    icon: {fileID: 0}
  - fruitNumber: 0
    prefabSelectedNum: 0
    Filled: 1
    icon: {fileID: 0}
  - fruitNumber: 0
    prefabSelectedNum: 0
    Filled: 1
    icon: {fileID: 0}
  - fruitNumber: 0
    prefabSelectedNum: 0
    Filled: 1
    icon: {fileID: 0}
