%YAML 1.1
%TAG !u! tag:unity3d.com,2011:
--- !u!114 &11400000
MonoBehaviour:
  m_ObjectHideFlags: 0
  m_CorrespondingSourceObject: {fileID: 0}
  m_PrefabInstance: {fileID: 0}
  m_PrefabAsset: {fileID: 0}
  m_GameObject: {fileID: 0}
  m_Enabled: 1
  m_EditorHideFlags: 0
  m_Script: {fileID: 11500000, guid: 966a95d4e777e9f40bb49ceb27e9a7c7, type: 3}
  m_Name: Visual_Data_2
  m_EditorClassIdentifier: 
  fogColor: {r: 1, g: 0.69584906, b: 0.5613208, a: 1}
  envColor: {r: 0.7511976, g: 0.69411767, b: 0.8862745, a: 1}
  color1: {r: 1, g: 1, b: 1, a: 1}
  color2: {r: 1, g: 0.8550417, b: 0.48584908, a: 1}
  lightColor: {r: 0.9056604, g: 0.24298137, b: 0.09825563, a: 1}
  lightAngle: {x: 45, y: 206, z: 0}
